{
  "id": "/myproduct/mysubsystem/node",
  "container": {
    "type": "DOCKER",
    "docker": {
      "image": "ronaldvaneede/my-nodejs-image",
      "network": "BRIDGE",
      "portMappings": [
        { "containerPort": 8000, "servicePort": 8000 }
      ]
    }
  },
  "instances": 4,
  "cpus": 0.1,
  "mem": 96.0,
  "healthChecks": [
    {
      "protocol": "HTTP",
      "path": "/",
      "portIndex": 0,
      "gracePeriodSeconds": 15,
      "intervalSeconds": 10,
      "timeoutSeconds": 20,
      "maxConsecutiveFailures": 3
    }
  ]
}